<?xml version="1.0" standalone="no"?>
<!DOCTYPE svg PUBLIC "-//W3C//DTD SVG 1.1//EN" "http://www.w3.org/Graphics/SVG/1.1/DTD/svg11.dtd" >
<svg xmlns="http://www.w3.org/2000/svg">
<metadata>Generated by IcoMoon</metadata>
<defs>
<font id="icomoon" horiz-adv-x="1024">
<font-face units-per-em="1024" ascent="960" descent="-64" />
<missing-glyph horiz-adv-x="1024" />
<glyph unicode="&#x20;" horiz-adv-x="512" d="" />
<glyph unicode="&#xe90a;" glyph-name="chevron" d="M512 564.719l381.628-389.576c28.156-28.744 73.808-28.744 101.964 0 28.16 28.744 28.16 75.348 0 104.092l-432.608 441.62c-28.156 28.744-73.812 28.744-101.968 0l-432.608-441.62c-28.16-28.744-28.16-75.348 0-104.092 28.156-28.744 73.808-28.744 101.964 0l381.628 389.576z" />
<glyph unicode="&#xe90d;" glyph-name="cross-circle" d="M512-60.001c-280.56 0-508 227.44-508 508s227.44 508 508 508c280.56 0 508-227.44 508-508s-227.44-508-508-508zM576.44 447.999l174.276 174.276c17.792 17.796 17.792 46.644 0 64.44-17.796 17.792-46.644 17.792-64.44 0l-174.276-174.276-174.276 174.276c-17.796 17.792-46.644 17.792-64.44 0-17.792-17.796-17.792-46.644 0-64.44l174.276-174.276-174.276-174.276c-17.792-17.796-17.792-46.644 0-64.44 17.796-17.792 46.644-17.792 64.44 0l174.276 174.276 174.276-174.276c17.796-17.792 46.644-17.792 64.44 0 17.792 17.796 17.792 46.644 0 64.44l-174.276 174.276z" />
<glyph unicode="&#xe91c;" glyph-name="reach" d="M836.436 254.511c-11.444 16.376-18.16 36.308-18.16 57.812 0 23.804 8.228 45.684 21.996 62.948l-129.32 129.456c-17.244-13.78-39.1-22.020-62.88-22.020-55.704 0-100.864 45.204-100.864 100.968 0 23.808 8.232 45.688 21.996 62.948l-129.316 129.456c-17.244-13.78-39.104-22.016-62.884-22.016-55.704 0-100.86 45.204-100.86 100.968s45.156 100.968 100.86 100.968c55.704 0 100.864-45.204 100.864-100.968 0-20.564-6.14-39.692-16.688-55.644l131.308-131.444c15.936 10.556 35.044 16.7 55.584 16.7 55.704 0 100.86-45.204 100.86-100.968 0-20.56-6.14-39.688-16.684-55.644l131.304-131.444c15.94 10.556 35.044 16.704 55.588 16.704 55.704 0 100.86-45.204 100.86-100.968s-45.156-100.968-100.86-100.968c-22.852 0-43.924 7.604-60.836 20.424l-129.776-129.912c12.808-16.928 20.404-38.024 20.404-60.9 0-55.764-45.156-100.968-100.86-100.968s-100.864 45.204-100.864 100.968c0 55.764 45.16 100.968 100.864 100.968 21.48 0 41.392-6.72 57.748-18.176l130.616 130.752zM456.384 101.327c12.808-16.872 20.408-37.9 20.408-60.696 0-55.576-45.16-100.632-100.864-100.632s-100.86 45.056-100.86 100.632c0 22.116 7.148 42.564 19.268 59.172l-130.168 129.872c-16.644-12.092-37.14-19.228-59.308-19.228-55.704 0-100.86 45.056-100.86 100.632 0 55.58 45.156 100.636 100.86 100.636 55.708 0 100.864-45.056 100.864-100.636 0-22.112-7.148-42.56-19.268-59.168l130.168-129.872c16.644 12.092 37.14 19.224 59.304 19.224 21.48 0 41.392-6.7 57.752-18.116l130.612 130.316c-11.444 16.32-18.16 36.188-18.16 57.616 0 55.58 45.16 100.636 100.864 100.636s100.86-45.056 100.86-100.636c0-55.576-45.156-100.632-100.86-100.632-22.848 0-43.924 7.584-60.836 20.36l-129.776-129.48zM375.928 212.143c-55.108 0-99.784 44.676-99.784 99.784 0 55.112 44.676 99.788 99.784 99.788 55.112 0 99.788-44.676 99.788-99.788 0-55.108-44.676-99.784-99.788-99.784zM375.928 484.283c-55.108 0-99.784 44.676-99.784 99.788 0 55.108 44.676 99.784 99.784 99.784 55.112 0 99.788-44.676 99.788-99.784 0-55.112-44.676-99.788-99.788-99.788zM103.784 484.283c-55.108 0-99.784 44.676-99.784 99.788 0 55.108 44.676 99.784 99.784 99.784 55.112 0 99.788-44.676 99.788-99.784 0-55.112-44.676-99.788-99.788-99.788zM648.072 756.427c-55.112 0-99.788 44.676-99.788 99.788 0 55.108 44.676 99.784 99.788 99.784 55.108 0 99.784-44.676 99.784-99.784 0-55.112-44.676-99.788-99.784-99.788zM920.216 484.283c-55.112 0-99.788 44.676-99.788 99.788 0 55.108 44.676 99.784 99.788 99.784 55.108 0 99.784-44.676 99.784-99.784 0-55.112-44.676-99.788-99.784-99.788z" />
<glyph unicode="&#xe931;" glyph-name="tick-dark" d="M10.24 445.079c0 279.776 225.332 506.92 502.88 506.92s502.88-227.144 502.88-506.92c0-279.776-225.332-506.92-502.88-506.92s-502.88 227.144-502.88 506.92zM431.872 338.863l-133.92 133.924c-14.784 14.784-38.788 14.784-53.572 0v0c-14.78-14.784-14.78-38.784 0-53.568l160.708-160.708c14.784-14.784 38.788-14.784 53.572 0-38.788-14.784-14.784-14.784 0 0v0l321.412 321.416c14.784 14.784 14.784 38.784 0 53.568v0c-14.78 14.784-38.784 14.784-53.568 0l-294.632-294.632z" />
<glyph unicode="&#xe933;" glyph-name="upload" d="M339.912 257.331v-28.68c0-47.52 38.524-86.044 86.044-86.044h200.768c47.524 0 86.044 38.524 86.044 86.044v28.68h258.132c23.76 0 43.024-19.26 43.024-43.020v-229.452c0-23.76-19.264-43.024-43.024-43.024h-917.8c-23.76 0-43.024 19.264-43.024 43.024v229.452c0 23.76 19.264 43.020 43.024 43.020h286.812zM741.452-0.801c23.76 0 43.020 19.264 43.020 43.024s-19.26 43.020-43.020 43.020c-23.76 0-43.024-19.26-43.024-43.020s19.264-43.024 43.024-43.024zM884.856-0.801c23.76 0 43.024 19.264 43.024 43.024s-19.264 43.020-43.024 43.020c-23.76 0-43.020-19.26-43.020-43.020s19.26-43.024 43.020-43.024zM557.868 940.415l274.196-295.292c16.168-17.412 15.16-44.632-2.252-60.8-7.956-7.392-18.412-11.496-29.272-11.496h-548.396c-23.764 0-43.024 19.26-43.024 43.020 0 10.86 4.108 21.316 11.496 29.276l274.2 295.292c16.168 17.408 43.388 18.416 60.8 2.252 0.776-0.724 1.528-1.476 2.252-2.252zM397.276 572.827h258.132v-329.836c0-23.76-19.264-43.024-43.024-43.024h-172.088c-23.76 0-43.020 19.264-43.020 43.024v329.836z" />
<glyph unicode="&#xe94a;" glyph-name="search" d="M1005.219 40.253l-280.359 280.48c50.255 68.545 77.176 151.415 76.801 236.409-0.959 221.864-180.4 401.572-402.253 402.854-106.169 0.48-208.121-41.522-283.143-116.65s-116.883-177.142-116.257-283.314c0.959-221.884 180.416-401.609 402.289-402.89 85.337-0.37 168.506 26.867 237.095 77.645l0.293 0.219 280.103-280.26c15.144-15.888 37.71-22.32 58.955-16.802s37.829 22.117 43.329 43.367c5.499 21.25-0.951 43.811-16.852 58.943v0zM402.004 237.456c-177.489 1.021-321.052 144.786-321.832 322.283-0.479 84.927 33.012 166.521 93.019 226.62s141.548 93.712 226.472 93.359c177.489-1.021 321.052-144.786 321.832-322.283 0.479-84.927-33.012-166.521-93.019-226.62s-141.548-93.712-226.472-93.359z" />
</font></defs></svg>