Var1	Var7	Var8	Var9	Var10	Var11	Var12	Var13	Var14	Var15	Var16	Var17	Var18	Var19	Var20
S11	A	F	I	53	0	-	1	R	5,8	1	5	1	2	0
S37	A	F	Y	32	0	-	0	-	5	30	0,4	0	2	0
S04	A	F	U	43	0	-	1	L	5	228	1	0	2	0
S01	A	F	I	57	0	-	0	-	6	5,6	1,3	1	2	0
S05	B	F	U	59	0	-	1	V	6	62	0,9	0	2	0
S28	A	F	U	80	0	-	1	R	12	250	0,2	0	2	0
S17	B	F	I	64	0	-	0	-	7,4	50	0,1	1	2	0
S12	B	F	UT	73	1	K	1	S	7	38	2	0	2	0
S19	B	F	I	58	0	-	0	-	13	42	3,7	0	2	0
S33	A	F	Y	31	0	-	0	-	5	3,4	2,1	0	2	0
S22	B	F	U	78	0	-	1	S	6	24	0,4	1	2	0
S21	B	F	U	72	0	-	1	GR	7,6	75	0,1	0	1	1
S18	A	F	I	79	0	-	0	-	7,4	25	3,6	1	1	0
S34	B	F	O	74	0	-	0	-	7,9	48	0,2	0	1	1
S25	B	F	T	76	1	Z	0	-	6,8	18	0,3	0	1	1
S09	B	F	TU	78	1	G	1	PZ	5,5	14	2	0	1	0
S08	B	F	I	92	0	-	0	-	9	5	3	0	1	0
S15	A	F	U	75	0	-	1	RE	6	62	0	0	0	1
S32	B	F	I	64	0	-	0	-	5	70	0,2	0	1	0
S35	A	F	T	82	1	L	0	-	6,1	11	4,7	0	1	0
S38	A	F	UT	69	1	J	1	Q	6,6	19	2,8	0	2	0
S14	B	F	T	84	1	S	0	-	7	7,3	1,6	0	1	0
S30	B	F	I	80	0	-	0	-	6	4	22	1	1	0
S07	B	F	T	46	1	D	0	-	6	2	10	0	2	0
S16	B	F	I	74	0	-	0	-	6	18	8	0	2	0
S00	B	F	I	77	0	-	0	-	5,7	150	0,3	1	1	0
S10	B	F	U	76	0	-	1	S	7,9	6	1,9	0	2	0
S29	A	F	E	85	0	-	0	-	9,9	13,65	6	0	2	0
S06	B	F	I	88	0	-	0	-	10,2	10,48	1	0	2	0
S26	A	F	Q	77	0	-	1	H	7,8	1,1	0,1	0	2	0
S24	A	F	T	56	1	A	0	-	12,8	3	20	0	1	0
S23	B	F	T	69	1	F	0	-	7,4	1,9	1	0	1	0
S31	A	F	E	65	0	-	0	-	5,6	1,7	2,4	0	1	0
S36	A	F	U	42	0	-	1	R	8	26	5,8	0	0	0
S27	B	F	RP	5	0	-	1	M	12,2	9,2	0,9	1	1	0
S03	B	G	W	61	0	-	1	S	7	0	20	0	0	0
S13	B	G	I	58	0	-	0	-	7,9	0	11	0	0	0
S02	A	G	U	72	1	H	1	R	6	0	8	0	2	0
S20	B	G	-	-	-	-	-	-	-	-	-	-	-	-
